<?xml version="1.0" encoding="UTF-8"?>
<gpx xmlns="http://www.topografix.com/GPX/1/1" xmlns:gpsies="http://www.gpsies.com/GPX/1/0" creator="GPSies http://www.gpsies.com - Emaus" version="1.1" xmlns:xsi="http://www.w3.org/2001/XMLSchema-instance" xsi:schemaLocation="http://www.topografix.com/GPX/1/1 http://www.topografix.com/GPX/1/1/gpx.xsd http://www.gpsies.com/GPX/1/0 http://www.gpsies.com/gpsies.xsd">
  <metadata>
    <name>Emaus</name>
    <author>
      <name>luchi8</name>
      <link href="http://www.gpsies.com/mapUser.do?username=luchi8">
        <text>luchi8 on GPSies.com</text>
        <type>GPSiesUserOnWeb</type>
      </link>
    </author>
    <link href="http://www.gpsies.com/map.do?fileId=pxkdqygaonvaoksw">
      <text>Emaus on GPSies.com</text>
      <type>trackOnWeb</type>
    </link>
    <time>2017-04-02T00:36:18Z</time>
    <extensions>
      <gpsies:property>round trip</gpsies:property>
      <gpsies:trackLengthMeter>8577.046902064858</gpsies:trackLengthMeter>
      <gpsies:totalAscentMeter>107.0</gpsies:totalAscentMeter>
      <gpsies:totalDescentMeter>107.0</gpsies:totalDescentMeter>
      <gpsies:minHeightMeter>17.0</gpsies:minHeightMeter>
      <gpsies:maxHeightMeter>60.0</gpsies:maxHeightMeter>
    </extensions>
  </metadata>
  <trk>
    <name>Emaus on GPSies.com</name>
    <link href="http://www.gpsies.com/map.do?fileId=pxkdqygaonvaoksw">
      <type>trackOnWeb</type>
    </link>
    <link href="http://www.gpsies.com/charts/px/map/pxkdqygaonvaoksw_map.png">
      <type>elevationChartUrlMap</type>
    </link>
    <link href="http://www.gpsies.com/charts/px/mapThumb/pxkdqygaonvaoksw_mapThumb.png">
      <type>elevationChartUrlMapThumb</type>
    </link>
    <link href="http://www.gpsies.com/charts/px/tab/pxkdqygaonvaoksw_tab.png">
      <type>elevationChartUrlTab</type>
    </link>
    <trkseg>
      <trkpt lat="-5.87965548" lon="-35.2451276">
        <ele>56.000000</ele>
        <time>2010-01-01T00:00:00Z</time>
      </trkpt>
      <trkpt lat="-5.87896711" lon="-35.2449291">
        <ele>57.000000</ele>
        <time>2010-01-01T00:00:28Z</time>
      </trkpt>
      <trkpt lat="-5.87927000" lon="-35.2440500">
        <ele>57.000000</ele>
        <time>2010-01-01T00:01:05Z</time>
      </trkpt>
      <trkpt lat="-5.87938000" lon="-35.2440800">
        <ele>58.000000</ele>
        <time>2010-01-01T00:01:10Z</time>
      </trkpt>
      <trkpt lat="-5.87938000" lon="-35.2440900">
        <ele>58.000000</ele>
        <time>2010-01-01T00:01:10Z</time>
      </trkpt>
      <trkpt lat="-5.88067000" lon="-35.2445200">
        <ele>53.000000</ele>
        <time>2010-01-01T00:02:05Z</time>
      </trkpt>
      <trkpt lat="-5.88067000" lon="-35.2445100">
        <ele>53.000000</ele>
        <time>2010-01-01T00:02:05Z</time>
      </trkpt>
      <trkpt lat="-5.88108000" lon="-35.2432400">
        <ele>53.000000</ele>
        <time>2010-01-01T00:02:58Z</time>
      </trkpt>
      <trkpt lat="-5.88110000" lon="-35.2432500">
        <ele>52.000000</ele>
        <time>2010-01-01T00:02:59Z</time>
      </trkpt>
      <trkpt lat="-5.88111000" lon="-35.2432500">
        <ele>52.000000</ele>
        <time>2010-01-01T00:02:59Z</time>
      </trkpt>
      <trkpt lat="-5.88290000" lon="-35.2438500">
        <ele>51.000000</ele>
        <time>2010-01-01T00:04:15Z</time>
      </trkpt>
      <trkpt lat="-5.88293000" lon="-35.2437600">
        <ele>51.000000</ele>
        <time>2010-01-01T00:04:19Z</time>
      </trkpt>
      <trkpt lat="-5.88344000" lon="-35.2421700">
        <ele>49.000000</ele>
        <time>2010-01-01T00:05:25Z</time>
      </trkpt>
      <trkpt lat="-5.88352000" lon="-35.2418100">
        <ele>46.000000</ele>
        <time>2010-01-01T00:05:40Z</time>
      </trkpt>
      <trkpt lat="-5.88354000" lon="-35.2417200">
        <ele>46.000000</ele>
        <time>2010-01-01T00:05:44Z</time>
      </trkpt>
      <trkpt lat="-5.88228000" lon="-35.2417600">
        <ele>53.000000</ele>
        <time>2010-01-01T00:06:34Z</time>
      </trkpt>
      <trkpt lat="-5.88163000" lon="-35.2418200">
        <ele>55.000000</ele>
        <time>2010-01-01T00:07:00Z</time>
      </trkpt>
      <trkpt lat="-5.88108000" lon="-35.2420100">
        <ele>51.000000</ele>
        <time>2010-01-01T00:07:24Z</time>
      </trkpt>
      <trkpt lat="-5.88070000" lon="-35.2421300">
        <ele>54.000000</ele>
        <time>2010-01-01T00:07:39Z</time>
      </trkpt>
      <trkpt lat="-5.88001000" lon="-35.2424700">
        <ele>57.000000</ele>
        <time>2010-01-01T00:08:10Z</time>
      </trkpt>
      <trkpt lat="-5.87953000" lon="-35.2428000">
        <ele>58.000000</ele>
        <time>2010-01-01T00:08:33Z</time>
      </trkpt>
      <trkpt lat="-5.87771310" lon="-35.2438724">
        <ele>59.000000</ele>
        <time>2010-01-01T00:09:58Z</time>
      </trkpt>
      <trkpt lat="-5.87489557" lon="-35.2450096">
        <ele>58.000000</ele>
        <time>2010-01-01T00:11:59Z</time>
      </trkpt>
      <trkpt lat="-5.87395640" lon="-35.2450740">
        <ele>54.000000</ele>
        <time>2010-01-01T00:12:37Z</time>
      </trkpt>
      <trkpt lat="-5.87320932" lon="-35.2450311">
        <ele>53.000000</ele>
        <time>2010-01-01T00:13:07Z</time>
      </trkpt>
      <trkpt lat="-5.87248359" lon="-35.2449238">
        <ele>54.000000</ele>
        <time>2010-01-01T00:13:36Z</time>
      </trkpt>
      <trkpt lat="-5.87199265" lon="-35.2448379">
        <ele>51.000000</ele>
        <time>2010-01-01T00:13:56Z</time>
      </trkpt>
      <trkpt lat="-5.87152306" lon="-35.2446448">
        <ele>49.000000</ele>
        <time>2010-01-01T00:14:17Z</time>
      </trkpt>
      <trkpt lat="-5.87062656" lon="-35.2442157">
        <ele>50.000000</ele>
        <time>2010-01-01T00:14:56Z</time>
      </trkpt>
      <trkpt lat="-5.86996486" lon="-35.2437651">
        <ele>49.000000</ele>
        <time>2010-01-01T00:15:28Z</time>
      </trkpt>
      <trkpt lat="-5.86934585" lon="-35.2432286">
        <ele>49.000000</ele>
        <time>2010-01-01T00:16:01Z</time>
      </trkpt>
      <trkpt lat="-5.86862012" lon="-35.2424347">
        <ele>44.000000</ele>
        <time>2010-01-01T00:16:44Z</time>
      </trkpt>
      <trkpt lat="-5.86804380" lon="-35.2418339">
        <ele>36.000000</ele>
        <time>2010-01-01T00:17:17Z</time>
      </trkpt>
      <trkpt lat="-5.86751017" lon="-35.2412760">
        <ele>21.000000</ele>
        <time>2010-01-01T00:17:48Z</time>
      </trkpt>
      <trkpt lat="-5.86714730" lon="-35.2408683">
        <ele>19.000000</ele>
        <time>2010-01-01T00:18:10Z</time>
      </trkpt>
      <trkpt lat="-5.86644290" lon="-35.2401816">
        <ele>28.000000</ele>
        <time>2010-01-01T00:18:49Z</time>
      </trkpt>
      <trkpt lat="-5.86595196" lon="-35.2397096">
        <ele>28.000000</ele>
        <time>2010-01-01T00:19:16Z</time>
      </trkpt>
      <trkpt lat="-5.86537564" lon="-35.2391517">
        <ele>28.000000</ele>
        <time>2010-01-01T00:19:48Z</time>
      </trkpt>
      <trkpt lat="-5.86484200" lon="-35.2387654">
        <ele>32.000000</ele>
        <time>2010-01-01T00:20:15Z</time>
      </trkpt>
      <trkpt lat="-5.86424433" lon="-35.2382290">
        <ele>36.000000</ele>
        <time>2010-01-01T00:20:47Z</time>
      </trkpt>
      <trkpt lat="-5.86388146" lon="-35.2378642">
        <ele>40.000000</ele>
        <time>2010-01-01T00:21:07Z</time>
      </trkpt>
      <trkpt lat="-5.86334783" lon="-35.2373063">
        <ele>46.000000</ele>
        <time>2010-01-01T00:21:38Z</time>
      </trkpt>
      <trkpt lat="-5.86281419" lon="-35.2367484">
        <ele>48.000000</ele>
        <time>2010-01-01T00:22:09Z</time>
      </trkpt>
      <trkpt lat="-5.86228055" lon="-35.2361690">
        <ele>55.000000</ele>
        <time>2010-01-01T00:22:40Z</time>
      </trkpt>
      <trkpt lat="-5.86170423" lon="-35.2355253">
        <ele>49.000000</ele>
        <time>2010-01-01T00:23:15Z</time>
      </trkpt>
      <trkpt lat="-5.86117059" lon="-35.2351605">
        <ele>52.000000</ele>
        <time>2010-01-01T00:23:41Z</time>
      </trkpt>
      <trkpt lat="-5.86063695" lon="-35.2347314">
        <ele>50.000000</ele>
        <time>2010-01-01T00:24:08Z</time>
      </trkpt>
      <trkpt lat="-5.85999659" lon="-35.2341735">
        <ele>48.000000</ele>
        <time>2010-01-01T00:24:42Z</time>
      </trkpt>
      <trkpt lat="-5.85948429" lon="-35.2337872">
        <ele>47.000000</ele>
        <time>2010-01-01T00:25:08Z</time>
      </trkpt>
      <trkpt lat="-5.85895065" lon="-35.2335083">
        <ele>47.000000</ele>
        <time>2010-01-01T00:25:32Z</time>
      </trkpt>
      <trkpt lat="-5.85924949" lon="-35.2330577">
        <ele>45.000000</ele>
        <time>2010-01-01T00:25:53Z</time>
      </trkpt>
      <trkpt lat="-5.85971909" lon="-35.2334010">
        <ele>46.000000</ele>
        <time>2010-01-01T00:26:16Z</time>
      </trkpt>
      <trkpt lat="-5.86029542" lon="-35.2338302">
        <ele>45.000000</ele>
        <time>2010-01-01T00:26:45Z</time>
      </trkpt>
      <trkpt lat="-5.86127732" lon="-35.2346456">
        <ele>52.000000</ele>
        <time>2010-01-01T00:27:36Z</time>
      </trkpt>
      <trkpt lat="-5.86172557" lon="-35.2349245">
        <ele>53.000000</ele>
        <time>2010-01-01T00:27:57Z</time>
      </trkpt>
      <trkpt lat="-5.86206710" lon="-35.2352249">
        <ele>50.000000</ele>
        <time>2010-01-01T00:28:15Z</time>
      </trkpt>
      <trkpt lat="-5.86292092" lon="-35.2360832">
        <ele>48.000000</ele>
        <time>2010-01-01T00:29:04Z</time>
      </trkpt>
      <trkpt lat="-5.86511949" lon="-35.2381002">
        <ele>29.000000</ele>
        <time>2010-01-01T00:31:03Z</time>
      </trkpt>
      <trkpt lat="-5.86563178" lon="-35.2386152">
        <ele>23.000000</ele>
        <time>2010-01-01T00:31:32Z</time>
      </trkpt>
      <trkpt lat="-5.86627214" lon="-35.2395808">
        <ele>28.000000</ele>
        <time>2010-01-01T00:32:18Z</time>
      </trkpt>
      <trkpt lat="-5.86738209" lon="-35.2406108">
        <ele>17.000000</ele>
        <time>2010-01-01T00:33:19Z</time>
      </trkpt>
      <trkpt lat="-5.86825725" lon="-35.2417051">
        <ele>36.000000</ele>
        <time>2010-01-01T00:34:15Z</time>
      </trkpt>
      <trkpt lat="-5.86906837" lon="-35.2426278">
        <ele>46.000000</ele>
        <time>2010-01-01T00:35:04Z</time>
      </trkpt>
      <trkpt lat="-5.86960200" lon="-35.2431213">
        <ele>48.000000</ele>
        <time>2010-01-01T00:35:33Z</time>
      </trkpt>
      <trkpt lat="-5.87015697" lon="-35.2434861">
        <ele>50.000000</ele>
        <time>2010-01-01T00:35:59Z</time>
      </trkpt>
      <trkpt lat="-5.87077598" lon="-35.2437865">
        <ele>52.000000</ele>
        <time>2010-01-01T00:36:27Z</time>
      </trkpt>
      <trkpt lat="-5.87184324" lon="-35.2442586">
        <ele>50.000000</ele>
        <time>2010-01-01T00:37:13Z</time>
      </trkpt>
      <trkpt lat="-5.87308125" lon="-35.2446877">
        <ele>54.000000</ele>
        <time>2010-01-01T00:38:06Z</time>
      </trkpt>
      <trkpt lat="-5.87365757" lon="-35.2447092">
        <ele>53.000000</ele>
        <time>2010-01-01T00:38:29Z</time>
      </trkpt>
      <trkpt lat="-5.87442599" lon="-35.2446877">
        <ele>56.000000</ele>
        <time>2010-01-01T00:39:00Z</time>
      </trkpt>
      <trkpt lat="-5.87519440" lon="-35.2445805">
        <ele>59.000000</ele>
        <time>2010-01-01T00:39:31Z</time>
      </trkpt>
      <trkpt lat="-5.87626165" lon="-35.2442586">
        <ele>58.000000</ele>
        <time>2010-01-01T00:40:15Z</time>
      </trkpt>
      <trkpt lat="-5.87713679" lon="-35.2437651">
        <ele>60.000000</ele>
        <time>2010-01-01T00:40:55Z</time>
      </trkpt>
      <trkpt lat="-5.87784117" lon="-35.2433788">
        <ele>58.000000</ele>
        <time>2010-01-01T00:41:28Z</time>
      </trkpt>
      <trkpt lat="-5.87828941" lon="-35.2430355">
        <ele>58.000000</ele>
        <time>2010-01-01T00:41:50Z</time>
      </trkpt>
      <trkpt lat="-5.87884438" lon="-35.2427619">
        <ele>57.000000</ele>
        <time>2010-01-01T00:42:15Z</time>
      </trkpt>
      <trkpt lat="-5.87909518" lon="-35.2430999">
        <ele>59.000000</ele>
        <time>2010-01-01T00:42:32Z</time>
      </trkpt>
      <trkpt lat="-5.88143243" lon="-35.2419036">
        <ele>53.000000</ele>
        <time>2010-01-01T00:44:17Z</time>
      </trkpt>
      <trkpt lat="-5.88266509" lon="-35.2417534">
        <ele>52.000000</ele>
        <time>2010-01-01T00:45:06Z</time>
      </trkpt>
      <trkpt lat="-5.88356157" lon="-35.2417051">
        <ele>46.000000</ele>
        <time>2010-01-01T00:45:42Z</time>
      </trkpt>
      <trkpt lat="-5.88311333" lon="-35.2431213">
        <ele>52.000000</ele>
        <time>2010-01-01T00:46:41Z</time>
      </trkpt>
      <trkpt lat="-5.88288387" lon="-35.2438402">
        <ele>51.000000</ele>
        <time>2010-01-01T00:47:12Z</time>
      </trkpt>
      <trkpt lat="-5.88172592" lon="-35.2435076">
        <ele>50.000000</ele>
        <time>2010-01-01T00:48:00Z</time>
      </trkpt>
      <trkpt lat="-5.88108558" lon="-35.2432715">
        <ele>52.000000</ele>
        <time>2010-01-01T00:48:27Z</time>
      </trkpt>
      <trkpt lat="-5.88065869" lon="-35.2445375">
        <ele>53.000000</ele>
        <time>2010-01-01T00:49:20Z</time>
      </trkpt>
      <trkpt lat="-5.87927128" lon="-35.2440440">
        <ele>57.000000</ele>
        <time>2010-01-01T00:50:19Z</time>
      </trkpt>
      <trkpt lat="-5.87899379" lon="-35.2449452">
        <ele>57.000000</ele>
        <time>2010-01-01T00:50:57Z</time>
      </trkpt>
      <trkpt lat="-5.87948472" lon="-35.2451169">
        <ele>56.000000</ele>
        <time>2010-01-01T00:51:18Z</time>
      </trkpt>
      <trkpt lat="-5.87972485" lon="-35.2451491">
        <ele>56.000000</ele>
        <time>2010-01-01T00:51:27Z</time>
      </trkpt>
    </trkseg>
  </trk>
</gpx>

