<?xml version="1.0" encoding="ISO-8859-1" standalone="yes"?>
<gpx
  xmlns="http://www.topografix.com/GPX/1/1"
  version="1.1" creator="GPS Planner http://gpsplanner.net/"
  xmlns:xsi="http://www.w3.org/2001/XMLSchema-instance"
  xmlns:gpxdata="http://www.cluetrust.com/XML/GPXDATA/1/0"
  xmlns:geocache="http://www.groundspeak.com/cache/1/0"
  xsi:schemaLocation="http://www.topografix.com/GPX/1/1 http://www.topografix.com/GPX/1/1/gpx.xsd
http://www.cluetrust.com/XML/GPXDATA/1/0 http://www.cluetrust.com/Schemas/gpxdata10.xsd">
<rte><name>ride somewhere</name>
<rtept lat="47.7001" lon="17.6805"><name>1</name><sym>8198</sym></rtept>
<rtept lat="47.7006" lon="17.6881"><name>2</name><sym>8198</sym></rtept>
<rtept lat="47.6957" lon="17.6888"><name>3</name><sym>8198</sym></rtept>
<rtept lat="47.6952" lon="17.6811"><name>4</name><sym>8198</sym></rtept>
<rtept lat="47.7001" lon="17.6805"><name>5</name><sym>8198</sym></rtept>
</rte>
</gpx>
